{
  "properties": {
    "name" : "task_set3",
    "n" : 17,
    "p" : 4,
    "x_prec_num" : 1,
    "x_prec_denom" : 14,
    "x_resid_num" : 4,
    "x_resid_denom" : 17
    
  },
  "data" : [
    {
    "id" : 1,
    "constraints" : {
      "wcet" : 10,
      "period" : 40,
      "resid" : 1
    } 
    },
    {
    "id" : 2,
    "constraints" : {
      "wcet" : 10,
      "period" : 40,
      "resid" : 2
    } 
    },
    {
    "id" : 3,
    "constraints" : {
      "wcet" : 10,
      "period" : 40,
      "resid" : 3
    } 
    },
    {
    "id" : 4,
    "constraints" : {
      "wcet" : 10,
      "period" : 40,
      "resid" : 4
    } 
    },
    {
    "id" : 5,
    "constraints" : {
      "wcet" : 10,
      "period" : 40,
      "resid" : null
    } 
    },
    {
    "id" : 6,
    "constraints" : {
      "wcet" : 10,
      "period" : 40,
      "resid" : null
    } 
    },
    {
    "id" : 7,
    "constraints" : {
      "wcet" : 10,
      "period" : 40,
      "resid" : null
    } 
    },
    {
    "id" : 8,
    "constraints" : {
      "wcet" : 10,
      "period" : 40,
      "resid" : null
    } 
    },
    {
    "id" : 9,
    "constraints" : {
      "wcet" : 10,
      "period" : 40,
      "resid" : null
    } 
    },
    {
    "id" : 10,
    "constraints" : {
      "wcet" : 10,
      "period" : 40,
      "resid" : null
    } 
    },
    {
    "id" : 11,
    "constraints" : {
      "wcet" : 10,
      "period" : 40,
      "resid" : null
    } 
    },
    {
    "id" : 12,
    "constraints" : {
      "wcet" : 10,
      "period" : 40,
      "resid" : null
    } 
    },
    {
    "id" : 13,
    "constraints" : {
      "wcet" : 10,
      "period" : 40,
      "resid" : null
    } 
    },
    {
    "id" : 14,
    "constraints" : {
      "wcet" : 10,
      "period" : 40,
      "resid" : null
    } 
    },
    {
    "id" : 15,
    "constraints" : {
      "wcet" : 10,
      "period" : 40,
      "resid" : null
    } 
    },
    {
    "id" : 16,
    "constraints" : {
      "wcet" : 10,
      "period" : 40,
      "resid" : null
    } 
    },
    {
    "id" : 17,
    "constraints" : {
      "wcet" : 10,
      "period" : 40,
      "resid" : null
    } 
    }
  ]
}
